[
    {
        "id": 1,
        "firstName": "John",
        "lastName": "Doe",
        "age": 15,
        "description": "Lorem ipsum dolor sit amet, consectetur adipiscing elit. Quisque aliquam varius enim, mollis tincidunt velit. Donec dolor sem, mattis vel tristique eu, fringilla vel mauris. In hac habitasse platea dictumst. Ut aliquet libero quis urna interdum scelerisque. Donec gravida mi nec luctus venenatis. Lorem ipsum dolor sit amet, consectetur adipiscing elit."
    },
    {
        "id": 2,
        "firstName": "Mary",
        "lastName": "Jane",
        "age": 24,
        "description": "Lorem ipsum dolor sit amet, consectetur adipiscing elit. Quisque aliquam varius enim, mollis tincidunt velit. Donec dolor sem, mattis vel tristique eu, fringilla vel mauris. In hac habitasse platea dictumst. Ut aliquet libero quis urna interdum scelerisque. Donec gravida mi nec luctus venenatis. Lorem ipsum dolor sit amet, consectetur adipiscing elit."
    },
    {
        "id": 3,
        "firstName": "Patrick",
        "lastName": "Jane",
        "age": 33,
        "description": "Lorem ipsum dolor sit amet, consectetur adipiscing elit. Quisque aliquam varius enim, mollis tincidunt velit. Donec dolor sem, mattis vel tristique eu, fringilla vel mauris. In hac habitasse platea dictumst. Ut aliquet libero quis urna interdum scelerisque. Donec gravida mi nec luctus venenatis. Lorem ipsum dolor sit amet, consectetur adipiscing elit."
    },
    {
        "id": 4,
        "firstName": "Rick",
        "lastName": "Grimes",
        "age": 36,
        "description": "Lorem ipsum dolor sit amet, consectetur adipiscing elit. Quisque aliquam varius enim, mollis tincidunt velit. Donec dolor sem, mattis vel tristique eu, fringilla vel mauris. In hac habitasse platea dictumst. Ut aliquet libero quis urna interdum scelerisque. Donec gravida mi nec luctus venenatis. Lorem ipsum dolor sit amet, consectetur adipiscing elit."
    },
    {
        "id": 5,
        "firstName": "Daryl",
        "lastName": "Dixon",
        "age": 29,
        "description": "Lorem ipsum dolor sit amet, consectetur adipiscing elit. Quisque aliquam varius enim, mollis tincidunt velit. Donec dolor sem, mattis vel tristique eu, fringilla vel mauris. In hac habitasse platea dictumst. Ut aliquet libero quis urna interdum scelerisque. Donec gravida mi nec luctus venenatis. Lorem ipsum dolor sit amet, consectetur adipiscing elit."
    },
    {
        "id": 6,
        "firstName": "Will",
        "lastName": "Byers",
        "age": 13,
        "description": "Lorem ipsum dolor sit amet, consectetur adipiscing elit. Quisque aliquam varius enim, mollis tincidunt velit. Donec dolor sem, mattis vel tristique eu, fringilla vel mauris. In hac habitasse platea dictumst. Ut aliquet libero quis urna interdum scelerisque. Donec gravida mi nec luctus venenatis. Lorem ipsum dolor sit amet, consectetur adipiscing elit."
    },
    {
        "id": 7,
        "firstName": "Bill",
        "lastName": "Tench",
        "age": 50,
        "description": "Lorem ipsum dolor sit amet, consectetur adipiscing elit. Quisque aliquam varius enim, mollis tincidunt velit. Donec dolor sem, mattis vel tristique eu, fringilla vel mauris. In hac habitasse platea dictumst. Ut aliquet libero quis urna interdum scelerisque. Donec gravida mi nec luctus venenatis. Lorem ipsum dolor sit amet, consectetur adipiscing elit."
    },
    {
        "id": 8,
        "firstName": "Ash",
        "lastName": "Ketchum",
        "age": 10,
        "description": "Lorem ipsum dolor sit amet, consectetur adipiscing elit. Quisque aliquam varius enim, mollis tincidunt velit. Donec dolor sem, mattis vel tristique eu, fringilla vel mauris. In hac habitasse platea dictumst. Ut aliquet libero quis urna interdum scelerisque. Donec gravida mi nec luctus venenatis. Lorem ipsum dolor sit amet, consectetur adipiscing elit."
    },
    {
        "id": 9,
        "firstName": "Dexter",
        "lastName": "Morgan",
        "age": 31,
        "description": "Lorem ipsum dolor sit amet, consectetur adipiscing elit. Quisque aliquam varius enim, mollis tincidunt velit. Donec dolor sem, mattis vel tristique eu, fringilla vel mauris. In hac habitasse platea dictumst. Ut aliquet libero quis urna interdum scelerisque. Donec gravida mi nec luctus venenatis. Lorem ipsum dolor sit amet, consectetur adipiscing elit."
    },
    {
        "id": 10,
        "firstName": "Debra",
        "lastName": "Morgan",
        "age": 27,
        "description": "Lorem ipsum dolor sit amet, consectetur adipiscing elit. Quisque aliquam varius enim, mollis tincidunt velit. Donec dolor sem, mattis vel tristique eu, fringilla vel mauris. In hac habitasse platea dictumst. Ut aliquet libero quis urna interdum scelerisque. Donec gravida mi nec luctus venenatis. Lorem ipsum dolor sit amet, consectetur adipiscing elit."
    },
    {
        "id": 11,
        "firstName": "Dexter",
        "lastName": "Morgan",
        "age": 31,
        "description": "Lorem ipsum dolor sit amet, consectetur adipiscing elit. Quisque aliquam varius enim, mollis tincidunt velit. Donec dolor sem, mattis vel tristique eu, fringilla vel mauris. In hac habitasse platea dictumst. Ut aliquet libero quis urna interdum scelerisque. Donec gravida mi nec luctus venenatis. Lorem ipsum dolor sit amet, consectetur adipiscing elit."
    },
    {
        "id": 12,
        "firstName": "Jack",
        "lastName": "Shephard",
        "age": 33,
        "description": "Lorem ipsum dolor sit amet, consectetur adipiscing elit. Quisque aliquam varius enim, mollis tincidunt velit. Donec dolor sem, mattis vel tristique eu, fringilla vel mauris. In hac habitasse platea dictumst. Ut aliquet libero quis urna interdum scelerisque. Donec gravida mi nec luctus venenatis. Lorem ipsum dolor sit amet, consectetur adipiscing elit."
    },
    {
        "id": 13,
        "firstName": "James",
        "lastName": "Sawyer",
        "age": 30,
        "description": "Lorem ipsum dolor sit amet, consectetur adipiscing elit. Quisque aliquam varius enim, mollis tincidunt velit. Donec dolor sem, mattis vel tristique eu, fringilla vel mauris. In hac habitasse platea dictumst. Ut aliquet libero quis urna interdum scelerisque. Donec gravida mi nec luctus venenatis. Lorem ipsum dolor sit amet, consectetur adipiscing elit."
    },
    {
        "id": 14,
        "firstName": "Buddy",
        "lastName": "Holly",
        "age": 25,
        "description": "Lorem ipsum dolor sit amet, consectetur adipiscing elit. Quisque aliquam varius enim, mollis tincidunt velit. Donec dolor sem, mattis vel tristique eu, fringilla vel mauris. In hac habitasse platea dictumst. Ut aliquet libero quis urna interdum scelerisque. Donec gravida mi nec luctus venenatis. Lorem ipsum dolor sit amet, consectetur adipiscing elit."
    },
    {
        "id": 15,
        "firstName": "Ted",
        "lastName": "Mosby",
        "age": 30,
        "description": "Lorem ipsum dolor sit amet, consectetur adipiscing elit. Quisque aliquam varius enim, mollis tincidunt velit. Donec dolor sem, mattis vel tristique eu, fringilla vel mauris. In hac habitasse platea dictumst. Ut aliquet libero quis urna interdum scelerisque. Donec gravida mi nec luctus venenatis. Lorem ipsum dolor sit amet, consectetur adipiscing elit."
    },
    {
        "id": 16,
        "firstName": "Sarah",
        "lastName": "Walker",
        "age": 26,
        "description": "Lorem ipsum dolor sit amet, consectetur adipiscing elit. Quisque aliquam varius enim, mollis tincidunt velit. Donec dolor sem, mattis vel tristique eu, fringilla vel mauris. In hac habitasse platea dictumst. Ut aliquet libero quis urna interdum scelerisque. Donec gravida mi nec luctus venenatis. Lorem ipsum dolor sit amet, consectetur adipiscing elit."
    },
    {
        "id": 17,
        "firstName": "Robin",
        "lastName": "Scherbatsky",
        "age": 29,
        "description": "Lorem ipsum dolor sit amet, consectetur adipiscing elit. Quisque aliquam varius enim, mollis tincidunt velit. Donec dolor sem, mattis vel tristique eu, fringilla vel mauris. In hac habitasse platea dictumst. Ut aliquet libero quis urna interdum scelerisque. Donec gravida mi nec luctus venenatis. Lorem ipsum dolor sit amet, consectetur adipiscing elit."
    },
    {
        "id": 18,
        "firstName": "Hermione",
        "lastName": "Granger",
        "age": 17,
        "description": "Lorem ipsum dolor sit amet, consectetur adipiscing elit. Quisque aliquam varius enim, mollis tincidunt velit. Donec dolor sem, mattis vel tristique eu, fringilla vel mauris. In hac habitasse platea dictumst. Ut aliquet libero quis urna interdum scelerisque. Donec gravida mi nec luctus venenatis. Lorem ipsum dolor sit amet, consectetur adipiscing elit."
    }
]